{"componentChunkName":"component---src-components-browse-blog-posts-index-js","path":"/blog","result":{"data":{"site":{"siteMetadata":{"title":"Khoufstudio Blog","description":"This is my coding blog where I write about my coding journey."}},"allMdx":{"totalCount":14,"edges":[{"node":{"id":"a5d0f1d9-9926-592b-a183-9a48c05beab6"}},{"node":{"id":"829a0f5f-74ec-596e-af65-effec3e81cd9"}},{"node":{"id":"bd0d969f-80ce-5418-ad93-f068a8065497"}},{"node":{"id":"b333b96d-6305-5ac4-a654-cd5721bbfbea"}},{"node":{"id":"65b4081f-b3a0-5074-baa7-3dc86c5de9df"}},{"node":{"id":"79fe1564-f373-56c6-97b4-b24203394e9a"}}],"nodes":[{"id":"a5d0f1d9-9926-592b-a183-9a48c05beab6","excerpt":"Pada postingan kali ini kita akan belajar untuk membuat aplikasi upload file menggunakan PHP. \nDi aplikasi ini kita bisa mengupload file dengan menglik tombol upload atau dengan drag and drop. \nSaat proses upload berlangsung akan ada progress bar…","frontmatter":{"title":"Upload File menggunakan drag and drop progressbar dengan jquery dan PHP","date":"30/03/2022","tags":["PHP","JS Basic","JQuery"],"thumbnail":{"publicURL":"/static/4a1a68374b793b857137d52540dd8c29/php-tutorial-logo.png"}},"fields":{"slug":"/blog/posts/2022/2022-03-30-upload_file_progress_bar_jquery/"}},{"id":"829a0f5f-74ec-596e-af65-effec3e81cd9","excerpt":"Instal dan jalankan Redis Caranya cukup mudah, yaitu dengan menjalankan perintah dibawah ini: Perintah diatas akan melakukan beberapa perintah berikut: Melakukan pull (download) image redis terbaru dari Dockerhub. Jika sudah ada sebelumnya, maka…","frontmatter":{"title":"Menginstal Redis menggunakan Docker","date":"28/02/2022","tags":["docker","redis"],"thumbnail":{"publicURL":"/static/4dafb2e107ea52b914cbedb658ff87d0/redis-tutorial.png"}},"fields":{"slug":"/blog/posts/2022/2022-02-28-menginstall_redis_di_docker/"}},{"id":"bd0d969f-80ce-5418-ad93-f068a8065497","excerpt":"splice()  merupakan fungsi yang mengubah array dengan menghapus atau mengganti salah satu nilai, serta dapat pula menambahkan satu atau lebih nilai di posisi (index) tertentu. \nSebagai contoh perhatikan contoh di bawah ini:  Sintaks Parameter start…","frontmatter":{"title":"Mengenal splice di Javascript","date":"13/02/2022","tags":["JS Basic"],"thumbnail":{"publicURL":"/static/b97a007f91a1317459614cf6f71cb7d2/js-tutorial-logo.png"}},"fields":{"slug":"/blog/posts/2022/2022-02-13-mengenal_splice_di_javascript/"}},{"id":"b333b96d-6305-5ac4-a654-cd5721bbfbea","excerpt":"Menginstall Ubuntu Di terminal/cli jalankan perintah dibawah untuk mendownload image Ubuntu terbaru.  Kemudian langkah berikutnya kita akan membuat docker container untuk menjalankan Ubuntu di PC/Laptop kita dengan perintah berikut: Kita bisa…","frontmatter":{"title":"Menjalankan Ubuntu di Docker 🐳","date":"06/01/2022","tags":["docker","ubuntu"],"thumbnail":{"publicURL":"/static/0b596cc987b5e736743b34dc3de3bf9f/docker-tutorial.png"}},"fields":{"slug":"/blog/posts/2022/2022-01-06-menjalankan-ubuntu-di-docker/"}},{"id":"65b4081f-b3a0-5074-baa7-3dc86c5de9df","excerpt":"Dengan javascript kita bisa mengambil url parameter. Misal urlnya adalah  https://example.com/?product=shirt&color=blue&newuser&size=m   langkah pertama, kita dapat mengambil parameter url nya dengan  window.location.search Kemudian kita dapat…","frontmatter":{"title":"Mengambil URL Parameter","date":"28/12/2021","tags":["JS Basic"],"thumbnail":{"publicURL":"/static/b97a007f91a1317459614cf6f71cb7d2/js-tutorial-logo.png"}},"fields":{"slug":"/blog/posts/2021/2021-12-28-mengambil-url-parameter-js/"}},{"id":"79fe1564-f373-56c6-97b4-b24203394e9a","excerpt":"Pada tutorial ini kita akan belajar tentang cara ekspor CSV menggunakan PHP dan MySQL. Sampel database yang akan digunakan dapat diunduh pada link berikut: https://github.com/datacharmer/test_db Setelah database terunduh, kemudian buat projek folder…","frontmatter":{"title":"Ekspor CSV menggunakan PHP dan MySQL","date":"09/12/2021","tags":["PHP","MySQL"],"thumbnail":{"publicURL":"/static/62b6ccc9584b6fa1f37208df5dea2a54/php-mysql-tutorial.png"}},"fields":{"slug":"/blog/posts/2021/2021-12-09-download-csv-php-mysql/"}}],"pageInfo":{"currentPage":1,"hasNextPage":true,"hasPreviousPage":false,"itemCount":6,"pageCount":3,"perPage":6,"totalCount":14}}},"pageContext":{"limit":6,"skip":0,"numPages":3,"currentPage":1,"filter":{"frontmatter":{"published":{"eq":true}}}}},"staticQueryHashes":[]}