{"componentChunkName":"component---src-components-browse-blog-posts-index-js","path":"/blog/page/2","result":{"data":{"site":{"siteMetadata":{"title":"Khoufstudio Blog","description":"This is my coding blog where I write about my coding journey."}},"allMdx":{"totalCount":10,"edges":[{"node":{"id":"8613a2fd-b6ac-5c3c-97f7-a81db57dee5f"}},{"node":{"id":"66b5f379-2f5e-5a51-911c-3c3fb6691da6"}},{"node":{"id":"feea95c1-7208-5d14-9d97-0a7840ede334"}},{"node":{"id":"dc8ac468-f541-5b68-a02e-840575d4a52b"}}],"nodes":[{"id":"8613a2fd-b6ac-5c3c-97f7-a81db57dee5f","excerpt":"Var  merupakan salah satu  statement  untuk mendeklarasikan variabel di Javascript. \nVar merupakan  statement  yang telah digunakan sebelum adanya standar  ES6 (ES2015) .\nPada artikel ini akan dijelaskan tentang  var  di javascript. Khususnya tentang…","frontmatter":{"title":"Sekilas tentang var di Javascript","date":"09/08/2021","tags":["JS Basic"],"thumbnail":{"publicURL":"/static/b97a007f91a1317459614cf6f71cb7d2/js-tutorial-logo.png"}},"fields":{"slug":"/blog/posts/2021/2021-08-09-seklias-tentang-var-di-javascript/"}},{"id":"66b5f379-2f5e-5a51-911c-3c3fb6691da6","excerpt":"Vim ( Vi IMproved ) adalah teks editor hasil kloning dari  Vi  teks editor disertai dengan beberapa tambahan. \nVim dibuat oleh Bram Moolenaar dan pertama kali rilis pada tahun 1991. \nVim merupakan aplikasi  open source  yang tersedia untuk banyak…","frontmatter":{"title":"Tutorial VIM Untuk Pemula #1","date":"14/07/2021","tags":["VIM"],"thumbnail":{"publicURL":"/static/312eb66ab1f8da0fdd071a8375963970/vim_logo.svg"}},"fields":{"slug":"/blog/posts/2021/2021-07-14-tutorial-vim-untuk-pemula/"}},{"id":"feea95c1-7208-5d14-9d97-0a7840ede334","excerpt":"Untuk menjalankan jquery di console google chrome, bisa paste kode dibawah ini di console chrome kalian: ","frontmatter":{"title":"Menggunakan JQuery di Console Google Chrome","date":"14/03/2021","tags":["JS Basic"],"thumbnail":{"publicURL":"/static/cbb58fbec9d44ed495d8b93ee61b9fe7/jquery_logo.png"}},"fields":{"slug":"/blog/posts/2021/2021-03-14-menggunakan-jquery-di-console-google-chrome/"}},{"id":"dc8ac468-f541-5b68-a02e-840575d4a52b","excerpt":"Selamat datang di blog khoufstudio. Semoga blog ini bermanfaat, bisa menjadi amal jariah bagi penulis. ","frontmatter":{"title":"Hello World","date":"28/01/2021","tags":null,"thumbnail":null},"fields":{"slug":"/blog/posts/2021/2021-02-21-hello-world/"}}],"pageInfo":{"currentPage":2,"hasNextPage":false,"hasPreviousPage":true,"itemCount":4,"pageCount":2,"perPage":6,"totalCount":10}}},"pageContext":{"limit":6,"skip":6,"numPages":2,"currentPage":2,"filter":{"frontmatter":{"published":{"eq":true}}}}},"staticQueryHashes":[]}