{"componentChunkName":"component---src-components-browse-blog-posts-index-js","path":"/blog/page/3","result":{"data":{"site":{"siteMetadata":{"title":"Khoufstudio Blog","description":"This is my coding blog where I write about my coding journey."}},"allMdx":{"totalCount":13,"edges":[{"node":{"id":"dc8ac468-f541-5b68-a02e-840575d4a52b"}}],"nodes":[{"id":"dc8ac468-f541-5b68-a02e-840575d4a52b","excerpt":"Selamat datang di blog khoufstudio. Semoga blog ini bermanfaat, bisa menjadi amal jariah bagi penulis. ","frontmatter":{"title":"Hello World","date":"28/01/2021","tags":null,"thumbnail":null},"fields":{"slug":"/blog/posts/2021/2021-02-21-hello-world/"}}],"pageInfo":{"currentPage":3,"hasNextPage":false,"hasPreviousPage":true,"itemCount":1,"pageCount":3,"perPage":6,"totalCount":13}}},"pageContext":{"limit":6,"skip":12,"numPages":3,"currentPage":3,"filter":{"frontmatter":{"published":{"eq":true}}}}},"staticQueryHashes":[]}